[
  {
    "username": "Idalgo",
    "email": "idalgo@gmail.com",
    "phone": "01",
    "birthday": "2018-07-06T09:28:17.085Z"
  },
  {
    "username": "Bob",
    "email": "bob@gmail.com",
    "phone": "02",
    "birthday": "2018-07-06T09:28:17.085Z"
  },
  {
    "username": "Dilan",
    "email": "dilan@gmail.com",
    "phone": "03.",
    "birthday": "2018-07-06T09:28:17.085Z"
  }
]